Arguments: 
  /usr/local/Cellar/node/9.7.1/bin/node /usr/local/Cellar/yarn/1.5.1/libexec/bin/yarn.js install

PATH: 
  /opt/local/bin:/opt/local/sbin:/usr/local/bin:/usr/bin:/bin:/usr/sbin:/sbin:/usr/local/go/bin:/opt/local/bin:/opt/local/sbin

Yarn version: 
  1.5.1

Node version: 
  9.7.1

Platform: 
  darwin x64

npm manifest: 
  {
    "name": "benchsnitch",
    "version": "1.0.0",
    "description": "Simple bot for testing out my development ideas",
    "main": "app.js",
    "scripts": {
      "test": "echo \"Error: no test specified\" && exit 1",
      "azure-publish": "node publish.js"
    },
    "repository": {
      "type": "git",
      "url": "git+ssh://git@gitlab.com/RegalSheep/BenchSnitch.git"
    },
    "keywords": [
      "git",
      "devbot",
      "bot",
      "ms",
      "teams"
    ],
    "author": "Sean Campbell",
    "license": "ISC",
    "bugs": {
      "url": "https://gitlab.com/RegalSheep/BenchSnitch/issues"
    },
    "homepage": "https://gitlab.com/RegalSheep/BenchSnitch#README",
    "dependencies": {
      "botbuilder": "^3.14.0",
      "botbuilder-azure": "^3.0.4",
      "botbuilder-teams": "^0.1.7",
      "firebase-admin": "^5.11.0",
      "npm": "^5.7.1",
      "restify": "^6.3.4"
    },
    "devDependencies": {
      "request": "^2.81.0",
      "zip-folder": "^1.0.0"
    }
  }

yarn manifest: 
  No manifest

Lockfile: 
  No lockfile

Trace: 
  Error: Couldn't find package "buffer-crc32@~0.2.1" required by "archiver@^0.11.0" on the "npm" registry.
      at new MessageError (/usr/local/Cellar/yarn/1.5.1/libexec/lib/cli.js:186:110)
      at PackageRequest.<anonymous> (/usr/local/Cellar/yarn/1.5.1/libexec/lib/cli.js:36274:17)
      at Generator.throw (<anonymous>)
      at step (/usr/local/Cellar/yarn/1.5.1/libexec/lib/cli.js:98:30)
      at /usr/local/Cellar/yarn/1.5.1/libexec/lib/cli.js:111:13
      at <anonymous>
      at process._tickCallback (internal/process/next_tick.js:118:7)
